…
``` r
shots_data
```

    ## # A tibble: 3,997 x 15
    ##    team_name game_date season period minutes_remaini… seconds_remaini…
    ##    <chr>     <chr>      <dbl>  <dbl>            <dbl>            <dbl>
    ##  1 Golden S… 11/1/16     2016      1                9               28
    ##  2 Golden S… 2/23/17     2016      4               10               16
    ##  3 Golden S… 2/25/17     2016      3                5               30
    ##  4 Golden S… 3/21/17     2016      4                8               56
    ##  5 Golden S… 11/21/16    2016      2                4               39
    ##  6 Golden S… 12/30/16    2016      4                7               17
    ##  7 Golden S… 11/7/16     2016      4                7               46
    ##  8 Golden S… 12/5/16     2016      2                8               55
    ##  9 Golden S… 11/25/16    2016      4                7               31
    ## 10 Golden S… 11/13/16    2016      2                8               47
    ## # ... with 3,987 more rows, and 9 more variables: shot_made_flag <chr>,
    ## #   action_type <chr>, shot_type <chr>, shot_distance <dbl>,
    ## #   opponent <chr>, x <dbl>, y <dbl>, Name <chr>, minute <dbl>

``` r
shots2pt_klay <- filter(shots_data, shot_type == "2PT Field Goal" & Name == "Klay Thompson")
shots2pt_klay
```

    # A tibble: 640 x 15
       team_name game_date season period minutes_remaini… seconds_remaini…
       <chr>     <chr>      <dbl>  <dbl>            <dbl>            <dbl>
     1 Golden S… 11/1/16     2016      1                9               28
     2 Golden S… 2/23/17     2016      4               10               16
     3 Golden S… 2/25/17     2016      3                5               30
     4 Golden S… 3/21/17     2016      4                8               56
     5 Golden S… 11/21/16    2016      2                4               39
     6 Golden S… 12/30/16    2016      4                7               17
     7 Golden S… 11/7/16     2016      4                7               46
     8 Golden S… 12/5/16     2016      2                8               55
     9 Golden S… 11/25/16    2016      4                7               31
    10 Golden S… 11/13/16    2016      2                8               47
    # ... with 630 more rows, and 9 more variables: shot_made_flag <chr>,
    #   action_type <chr>, shot_type <chr>, shot_distance <dbl>,
    #   opponent <chr>, x <dbl>, y <dbl>, Name <chr>, minute <dbl>

``` r
#640 rows

filter(shots2pt_klay, shot_made_flag == "shot_yes")
```

    # A tibble: 329 x 15
       team_name game_date season period minutes_remaini… seconds_remaini…
       <chr>     <chr>      <dbl>  <dbl>            <dbl>            <dbl>
     1 Golden S… 11/1/16     2016      1                9               28
     2 Golden S… 2/23/17     2016      4               10               16
     3 Golden S… 2/25/17     2016      3                5               30
     4 Golden S… 3/21/17     2016      4                8               56
     5 Golden S… 11/21/16    2016      2                4               39
     6 Golden S… 12/30/16    2016      4                7               17
     7 Golden S… 11/7/16     2016      4                7               46
     8 Golden S… 12/5/16     2016      2                8               55
     9 Golden S… 11/25/16    2016      4                7               31
    10 Golden S… 11/13/16    2016      2                8               47
    # ... with 319 more rows, and 9 more variables: shot_made_flag <chr>,
    #   action_type <chr>, shot_type <chr>, shot_distance <dbl>,
    #   opponent <chr>, x <dbl>, y <dbl>, Name <chr>, minute <dbl>

``` r
#329 rows 

#329/640 = 0.5140625
```

``` r
shots2pt_andre <- filter(shots_data, shot_type == "2PT Field Goal" & Name == "Andre Iguodala")
shots2pt_andre
```

    # A tibble: 210 x 15
       team_name game_date season period minutes_remaini… seconds_remaini…
       <chr>     <chr>      <dbl>  <dbl>            <dbl>            <dbl>
     1 Golden S… 3/24/17     2016      3                2               35
     2 Golden S… 11/3/16     2016      2               10               51
     3 Golden S… 10/25/16    2016      2                0                6
     4 Golden S… 11/3/16     2016      2               11               10
     5 Golden S… 1/8/17      2016      4                0               32
     6 Golden S… 3/16/17     2016      3                5               30
     7 Golden S… 1/2/17      2016      4                7               57
     8 Golden S… 12/7/16     2016      4                9               31
     9 Golden S… 2/28/17     2016      2                0               23
    10 Golden S… 2/1/17      2016      2                0                2
    # ... with 200 more rows, and 9 more variables: shot_made_flag <chr>,
    #   action_type <chr>, shot_type <chr>, shot_distance <dbl>,
    #   opponent <chr>, x <dbl>, y <dbl>, Name <chr>, minute <dbl>

``` r
#210 rows

filter(shots2pt_andre, shot_made_flag == "shot_yes")
```

    # A tibble: 134 x 15
       team_name game_date season period minutes_remaini… seconds_remaini…
       <chr>     <chr>      <dbl>  <dbl>            <dbl>            <dbl>
     1 Golden S… 10/25/16    2016      2                0                6
     2 Golden S… 1/8/17      2016      4                0               32
     3 Golden S… 3/16/17     2016      3                5               30
     4 Golden S… 1/2/17      2016      4                7               57
     5 Golden S… 12/7/16     2016      4                9               31
     6 Golden S… 2/28/17     2016      2                0               23
     7 Golden S… 2/1/17      2016      2                0                2
     8 Golden S… 11/25/16    2016      1                0               44
     9 Golden S… 2/13/17     2016      1                0               41
    10 Golden S… 12/28/16    2016      2                3               34
    # ... with 124 more rows, and 9 more variables: shot_made_flag <chr>,
    #   action_type <chr>, shot_type <chr>, shot_distance <dbl>,
    #   opponent <chr>, x <dbl>, y <dbl>, Name <chr>, minute <dbl>

``` r
#134 rows 

#134/210 =  0.6380952
```

``` r
shots2pt_draymond <- filter(shots_data, shot_type == "2PT Field Goal" & Name == "Draymond Green")
shots2pt_draymond
```

    # A tibble: 346 x 15
       team_name game_date season period minutes_remaini… seconds_remaini…
       <chr>     <chr>      <dbl>  <dbl>            <dbl>            <dbl>
     1 Golden S… 3/5/17      2016      3                7               50
     2 Golden S… 12/30/16    2016      3                7               48
     3 Golden S… 1/16/17     2016      1                9                6
     4 Golden S… 12/7/16     2016      2                0               43
     5 Golden S… 11/19/16    2016      1                8               43
     6 Golden S… 1/22/17     2016      3                9               27
     7 Golden S… 11/4/16     2016      4                6                6
     8 Golden S… 3/16/17     2016      3                1               20
     9 Golden S… 2/4/17      2016      4                0               57
    10 Golden S… 12/20/16    2016      3                3               22
    # ... with 336 more rows, and 9 more variables: shot_made_flag <chr>,
    #   action_type <chr>, shot_type <chr>, shot_distance <dbl>,
    #   opponent <chr>, x <dbl>, y <dbl>, Name <chr>, minute <dbl>

``` r
#346 rows

filter(shots2pt_draymond, shot_made_flag == "shot_yes")
```

    # A tibble: 171 x 15
       team_name game_date season period minutes_remaini… seconds_remaini…
       <chr>     <chr>      <dbl>  <dbl>            <dbl>            <dbl>
     1 Golden S… 3/5/17      2016      3                7               50
     2 Golden S… 12/30/16    2016      3                7               48
     3 Golden S… 1/16/17     2016      1                9                6
     4 Golden S… 12/7/16     2016      2                0               43
     5 Golden S… 11/19/16    2016      1                8               43
     6 Golden S… 1/22/17     2016      3                9               27
     7 Golden S… 11/4/16     2016      4                6                6
     8 Golden S… 3/16/17     2016      3                1               20
     9 Golden S… 2/4/17      2016      4                0               57
    10 Golden S… 12/20/16    2016      3                3               22
    # ... with 161 more rows, and 9 more variables: shot_made_flag <chr>,
    #   action_type <chr>, shot_type <chr>, shot_distance <dbl>,
    #   opponent <chr>, x <dbl>, y <dbl>, Name <chr>, minute <dbl>

``` r
#171 rows 

#171/346 =  0.4942197
```

``` r
shots2pt_steph <- filter(shots_data, shot_type == "2PT Field Goal" & Name == "Stephen Curry")
shots2pt_steph
```

    ## # A tibble: 563 x 15
    ##    team_name game_date season period minutes_remaini… seconds_remaini…
    ##    <chr>     <chr>      <dbl>  <dbl>            <dbl>            <dbl>
    ##  1 Golden S… 12/15/16    2016      3                3               51
    ##  2 Golden S… 10/28/16    2016      3                9               14
    ##  3 Golden S… 11/1/16     2016      2                5                8
    ##  4 Golden S… 12/1/16     2016      3                5               27
    ##  5 Golden S… 4/4/17      2016      3                2                4
    ##  6 Golden S… 11/19/16    2016      4                5               36
    ##  7 Golden S… 11/21/16    2016      3                9               51
    ##  8 Golden S… 3/29/17     2016      2                1               40
    ##  9 Golden S… 11/25/16    2016      3               10               59
    ## 10 Golden S… 12/28/16    2016      3                3               54
    ## # ... with 553 more rows, and 9 more variables: shot_made_flag <chr>,
    ## #   action_type <chr>, shot_type <chr>, shot_distance <dbl>,
    ## #   opponent <chr>, x <dbl>, y <dbl>, Name <chr>, minute <dbl>

``` r
#563 rows

filter(shots2pt_steph, shot_made_flag == "shot_yes")
```

    ## # A tibble: 304 x 15
    ##    team_name game_date season period minutes_remaini… seconds_remaini…
    ##    <chr>     <chr>      <dbl>  <dbl>            <dbl>            <dbl>
    ##  1 Golden S… 12/15/16    2016      3                3               51
    ##  2 Golden S… 10/28/16    2016      3                9               14
    ##  3 Golden S… 11/1/16     2016      2                5                8
    ##  4 Golden S… 12/1/16     2016      3                5               27
    ##  5 Golden S… 4/4/17      2016      3                2                4
    ##  6 Golden S… 11/19/16    2016      4                5               36
    ##  7 Golden S… 11/21/16    2016      3                9               51
    ##  8 Golden S… 3/29/17     2016      2                1               40
    ##  9 Golden S… 11/25/16    2016      3               10               59
    ## 10 Golden S… 12/28/16    2016      3                3               54
    ## # ... with 294 more rows, and 9 more variables: shot_made_flag <chr>,
    ## #   action_type <chr>, shot_type <chr>, shot_distance <dbl>,
    ## #   opponent <chr>, x <dbl>, y <dbl>, Name <chr>, minute <dbl>

``` r
#304 rows 

#304/563 =  0.5399645
```

``` r
shots2pt_kd <- filter(shots_data, shot_type == "2PT Field Goal" & Name == "Kevin Durant")
shots2pt_kd
```

    # A tibble: 346 x 15
       team_name game_date season period minutes_remaini… seconds_remaini…
       <chr>     <chr>      <dbl>  <dbl>            <dbl>            <dbl>
     1 Golden S… 3/5/17      2016      3                7               50
     2 Golden S… 12/30/16    2016      3                7               48
     3 Golden S… 1/16/17     2016      1                9                6
     4 Golden S… 12/7/16     2016      2                0               43
     5 Golden S… 11/19/16    2016      1                8               43
     6 Golden S… 1/22/17     2016      3                9               27
     7 Golden S… 11/4/16     2016      4                6                6
     8 Golden S… 3/16/17     2016      3                1               20
     9 Golden S… 2/4/17      2016      4                0               57
    10 Golden S… 12/20/16    2016      3                3               22
    # ... with 336 more rows, and 9 more variables: shot_made_flag <chr>,
    #   action_type <chr>, shot_type <chr>, shot_distance <dbl>,
    #   opponent <chr>, x <dbl>, y <dbl>, Name <chr>, minute <dbl>

``` r
#643 rows

filter(shots2pt_kd, shot_made_flag == "shot_yes")
```

    # A tibble: 171 x 15
       team_name game_date season period minutes_remaini… seconds_remaini…
       <chr>     <chr>      <dbl>  <dbl>            <dbl>            <dbl>
     1 Golden S… 3/5/17      2016      3                7               50
     2 Golden S… 12/30/16    2016      3                7               48
     3 Golden S… 1/16/17     2016      1                9                6
     4 Golden S… 12/7/16     2016      2                0               43
     5 Golden S… 11/19/16    2016      1                8               43
     6 Golden S… 1/22/17     2016      3                9               27
     7 Golden S… 11/4/16     2016      4                6                6
     8 Golden S… 3/16/17     2016      3                1               20
     9 Golden S… 2/4/17      2016      4                0               57
    10 Golden S… 12/20/16    2016      3                3               22
    # ... with 161 more rows, and 9 more variables: shot_made_flag <chr>,
    #   action_type <chr>, shot_type <chr>, shot_distance <dbl>,
    #   opponent <chr>, x <dbl>, y <dbl>, Name <chr>, minute <dbl>

``` r
#390 rows 

#171/346 = 0.4942197
```

``` r
shots3pt_kd <- filter(shots_data, shot_type == "3PT Field Goal" & Name == "Kevin Durant")
shots3pt_kd
```

    # A tibble: 232 x 15
       team_name game_date season period minutes_remaini… seconds_remaini…
       <chr>     <chr>      <dbl>  <dbl>            <dbl>            <dbl>
     1 Golden S… 11/16/16    2016      4                6               23
     2 Golden S… 2/27/17     2016      4                6               26
     3 Golden S… 3/31/17     2016      4                4               51
     4 Golden S… 3/31/17     2016      3               11               28
     5 Golden S… 3/31/17     2016      3                0               33
     6 Golden S… 3/29/17     2016      1                8               11
     7 Golden S… 3/28/17     2016      4                1               12
     8 Golden S… 3/28/17     2016      3                4                1
     9 Golden S… 3/28/17     2016      1                1               36
    10 Golden S… 3/28/17     2016      2                5               59
    # ... with 222 more rows, and 9 more variables: shot_made_flag <chr>,
    #   action_type <chr>, shot_type <chr>, shot_distance <dbl>,
    #   opponent <chr>, x <dbl>, y <dbl>, Name <chr>, minute <dbl>

``` r
#272 rows

filter(shots3pt_kd, shot_made_flag == "shot_yes")
```

    # A tibble: 74 x 15
       team_name game_date season period minutes_remaini… seconds_remaini…
       <chr>     <chr>      <dbl>  <dbl>            <dbl>            <dbl>
     1 Golden S… 2/27/17     2016      4                6               26
     2 Golden S… 3/28/17     2016      1                6                9
     3 Golden S… 3/21/17     2016      1                1               54
     4 Golden S… 3/6/17      2016      3               10               15
     5 Golden S… 3/6/17      2016      1               11                7
     6 Golden S… 3/5/17      2016      1                9               52
     7 Golden S… 3/2/17      2016      2                1               37
     8 Golden S… 3/2/17      2016      3                9               36
     9 Golden S… 2/28/17     2016      4                1                4
    10 Golden S… 2/28/17     2016      4                2               17
    # ... with 64 more rows, and 9 more variables: shot_made_flag <chr>,
    #   action_type <chr>, shot_type <chr>, shot_distance <dbl>,
    #   opponent <chr>, x <dbl>, y <dbl>, Name <chr>, minute <dbl>

``` r
#105 rows 

#74/232 = 0.3189655
```

``` r
shots3pt_draymond <- filter(shots_data, shot_type == "3PT Field Goal" & Name == "Draymond Green")
shots3pt_draymond
```

    ## # A tibble: 232 x 15
    ##    team_name game_date season period minutes_remaini… seconds_remaini…
    ##    <chr>     <chr>      <dbl>  <dbl>            <dbl>            <dbl>
    ##  1 Golden S… 11/16/16    2016      4                6               23
    ##  2 Golden S… 2/27/17     2016      4                6               26
    ##  3 Golden S… 3/31/17     2016      4                4               51
    ##  4 Golden S… 3/31/17     2016      3               11               28
    ##  5 Golden S… 3/31/17     2016      3                0               33
    ##  6 Golden S… 3/29/17     2016      1                8               11
    ##  7 Golden S… 3/28/17     2016      4                1               12
    ##  8 Golden S… 3/28/17     2016      3                4                1
    ##  9 Golden S… 3/28/17     2016      1                1               36
    ## 10 Golden S… 3/28/17     2016      2                5               59
    ## # ... with 222 more rows, and 9 more variables: shot_made_flag <chr>,
    ## #   action_type <chr>, shot_type <chr>, shot_distance <dbl>,
    ## #   opponent <chr>, x <dbl>, y <dbl>, Name <chr>, minute <dbl>

``` r
#232 rows

filter(shots3pt_draymond, shot_made_flag == "shot_yes")
```

    ## # A tibble: 74 x 15
    ##    team_name game_date season period minutes_remaini… seconds_remaini…
    ##    <chr>     <chr>      <dbl>  <dbl>            <dbl>            <dbl>
    ##  1 Golden S… 2/27/17     2016      4                6               26
    ##  2 Golden S… 3/28/17     2016      1                6                9
    ##  3 Golden S… 3/21/17     2016      1                1               54
    ##  4 Golden S… 3/6/17      2016      3               10               15
    ##  5 Golden S… 3/6/17      2016      1               11                7
    ##  6 Golden S… 3/5/17      2016      1                9               52
    ##  7 Golden S… 3/2/17      2016      2                1               37
    ##  8 Golden S… 3/2/17      2016      3                9               36
    ##  9 Golden S… 2/28/17     2016      4                1                4
    ## 10 Golden S… 2/28/17     2016      4                2               17
    ## # ... with 64 more rows, and 9 more variables: shot_made_flag <chr>,
    ## #   action_type <chr>, shot_type <chr>, shot_distance <dbl>,
    ## #   opponent <chr>, x <dbl>, y <dbl>, Name <chr>, minute <dbl>
…
